…
# Remove full panel dataset from memory
rm(longdata)
```

For completeness, the full cross sectional dataset we work with is presented in the following table

```r
csdata <- csdata %>% arrange(desc(rGNIpc))

csdata
```

```
## # A tibble: 212 x 5
##    Country        Code  Region                       Year rGNIpc
##    <fct>          <fct> <fct>                       <dbl>  <dbl>
##  1 Bermuda        BMU   North America                2019 117280
##  2 Isle of Man    IMN   Europe and Central Asia      2019  84490
##  3 Switzerland    CHE   Europe and Central Asia      2019  83160
##  4 Norway         NOR   Europe and Central Asia      2019  82430
##  5 Luxembourg     LUX   Europe and Central Asia      2019  77500
##  6 Iceland        ISL   Europe and Central Asia      2019  72980
##  7 Faroe Islands  FRO   Europe and Central Asia      2019  66380
##  8 USA            USA   North America                2019  66130
##  9 Cayman Islands CYM   Latin America and Caribbean  2019  65690
## 10 Ireland        IRL   Europe and Central Asia      2019  63570
## # i 202 more rows
```
…
Now, keep only one observation from 1973 for each country:

```r
df<-longdata %>% group_by(Country) %>% filter(Year==1973&!is.na(rGNIpc.gr))
```
Note that we are left with only 97 countries, as for the others data on GNI p.c. for either 1973 or 2019 was missing.

The data we are using now is presented below:

```r
df %>% arrange(rGNIpc.gr)
```

```
## # A tibble: 97 x 6
## # Groups:   Country [97]
##    Country                  Code  Region              Year rGNIpc rGNIpc.gr
##    <fct>                    <fct> <fct>              <dbl>  <dbl>     <dbl>
##  1 Madagascar               MDG   Sub-Saharan Africa  1973    210    0.0195
##  2 Sierra Leone             SLE   Sub-Saharan Africa  1973    190    0.0221
##  3 Zimbabwe                 ZWE   Sub-Saharan Africa  1973    520    0.0225
##  4 Burundi                  BDI   Sub-Saharan Africa  1973     80    0.0232
##  5 Zambia                   ZMB   Sub-Saharan Africa  1973    450    0.0248
##  6 Somalia                  SOM   Sub-Saharan Africa  1973    120    0.0271
##  7 Central African Republic CAF   Sub-Saharan Africa  1973    120    0.0301
##  8 Niger                    NER   Sub-Saharan Africa  1973    150    0.0302
##  9 Togo                     TGO   Sub-Saharan Africa  1973    220    0.0306
## 10 Senegal                  SEN   Sub-Saharan Africa  1973    360    0.0309
## # i 87 more rows
```
…
